{
  "tracks": {
    "href": "https://api.spotify.com/v1/search?query=enter+sandman&type=track&offset=0&limit=1",
    "items": [
      {
        "album": {
          "album_type": "album",
          "artists": [
            {
              "external_urls": {
                "spotify": "https://open.spotify.com/artist/2ye2Wgw4gimLv2eAKyk1NB"
              },
              "href": "https://api.spotify.com/v1/artists/2ye2Wgw4gimLv2eAKyk1NB",
              "id": "2ye2Wgw4gimLv2eAKyk1NB",
              "name": "Metallica",
              "type": "artist",
              "uri": "spotify:artist:2ye2Wgw4gimLv2eAKyk1NB"
            }
          ],
          "available_markets": [
            "CA",
            "US"
          ],
          "external_urls": {
            "spotify": "https://open.spotify.com/album/6QdCohkHKNTVoaSx1ZzitH"
          },
          "href": "https://api.spotify.com/v1/albums/6QdCohkHKNTVoaSx1ZzitH",
          "id": "6QdCohkHKNTVoaSx1ZzitH",
          "images": [
            {
              "height": 640,
              "url": "https://i.scdn.co/image/deb44798f4a2fff65c62bf4ca2c9b0ebb4a7f5f2",
              "width": 640
            },
            {
              "height": 300,
              "url": "https://i.scdn.co/image/fa1fa021a6ef74b433f8700660c212b51fc97b30",
              "width": 300
            },
            {
              "height": 64,
              "url": "https://i.scdn.co/image/9eb491dfcd0f887ec034d551ecb9916e834a2678",
              "width": 64
            }
          ],
          "name": "Metallica",
          "release_date": "1991-08-12",
          "release_date_precision": "day",
          "total_tracks": 12,
          "type": "album",
          "uri": "spotify:album:6QdCohkHKNTVoaSx1ZzitH"
        },
        "artists": [
          {
            "external_urls": {
              "spotify": "https://open.spotify.com/artist/2ye2Wgw4gimLv2eAKyk1NB"
            },
            "href": "https://api.spotify.com/v1/artists/2ye2Wgw4gimLv2eAKyk1NB",
            "id": "2ye2Wgw4gimLv2eAKyk1NB",
            "name": "Metallica",
            "type": "artist",
            "uri": "spotify:artist:2ye2Wgw4gimLv2eAKyk1NB"
          }
        ],
        "available_markets": [
          "CA",
          "US"
        ],
        "disc_number": 1,
        "duration_ms": 331573,
        "explicit": false,
        "external_ids": {
          "isrc": "USEE10001992"
        },
        "external_urls": {
          "spotify": "https://open.spotify.com/track/5BIMPccDwShpXq784RJlJp"
        },
        "href": "https://api.spotify.com/v1/tracks/5BIMPccDwShpXq784RJlJp",
        "id": "5BIMPccDwShpXq784RJlJp",
        "is_local": false,
        "name": "Enter Sandman",
        "popularity": 71,
        "preview_url": "https://p.scdn.co/mp3-preview/1ee9f1b0c3e3b327dd49ebc6dd64266b01adb96a?cid=c927f166771b4438aebebd7ab896eceb",
        "track_number": 1,
        "type": "track",
        "uri": "spotify:track:5BIMPccDwShpXq784RJlJp"
      }
    ],
    "limit": 1,
    "next": "https://api.spotify.com/v1/search?query=enter+sandman&type=track&offset=1&limit=1",
    "offset": 0,
    "previous": null,
    "total": 628
  }
}